Lesson 8 Data Rodeo | Empirical Research Methods
…
The dplyr package includes a built-in dataset called starwars. Use the glimpse() function to get a quick overview of this dataset, and then read the associated help file before answering the following questions.

Select only the columns of starwars that contain character data.

Select only the columns of starwars that contain an underscore.

Select only the columns of starwars that are either numeric or whose names end with "color".

Show Solution

starwars %>%
  select(where(is.character))

## # A tibble: 87 × 8
##    name           hair_color skin_color eye_color sex   gender homeworld species
##    <chr>          <chr>      <chr>      <chr>     <chr> <chr>  <chr>     <chr>  
##  1 Luke Skywalker blond      fair       blue      male  mascu… Tatooine  Human  
##  2 C-3PO          <NA>       gold       yellow    none  mascu… Tatooine  Droid  
##  3 R2-D2          <NA>       white, bl… red       none  mascu… Naboo     Droid  
##  4 Darth Vader    none       white      yellow    male  mascu… Tatooine  Human  
##  5 Leia Organa    brown      light      brown     fema… femin… Alderaan  Human  
##  6 Owen Lars      brown, gr… light      blue      male  mascu… Tatooine  Human  
##  7 Beru Whitesun… brown      light      blue      fema… femin… Tatooine  Human  
##  8 R5-D4          <NA>       white, red red       none  mascu… Tatooine  Droid  
##  9 Biggs Darklig… black      light      brown     male  mascu… Tatooine  Human  
## 10 Obi-Wan Kenobi auburn, w… fair       blue-gray male  mascu… Stewjon   Human  
## # … with 77 more rows

starwars %>%
  select(contains('_'))

## # A tibble: 87 × 4
##    hair_color    skin_color  eye_color birth_year
##    <chr>         <chr>       <chr>          <dbl>
##  1 blond         fair        blue            19  
##  2 <NA>          gold        yellow         112  
##  3 <NA>          white, blue red             33  
##  4 none          white       yellow          41.9
##  5 brown         light       brown           19  
##  6 brown, grey   light       blue            52  
##  7 brown         light       blue            47  
##  8 <NA>          white, red  red             NA  
##  9 black         light       brown           24  
## 10 auburn, white fair        blue-gray       57  
## # … with 77 more rows

starwars %>%
  select(ends_with('color') | where(is.numeric))

## # A tibble: 87 × 6
##    hair_color    skin_color  eye_color height  mass birth_year
##    <chr>         <chr>       <chr>      <int> <dbl>      <dbl>
##  1 blond         fair        blue         172    77       19  
##  2 <NA>          gold        yellow       167    75      112  
##  3 <NA>          white, blue red           96    32       33  
##  4 none          white       yellow       202   136       41.9
##  5 brown         light       brown        150    49       19  
##  6 brown, grey   light       blue         178   120       52  
##  7 brown         light       blue         165    75       47  
##  8 <NA>          white, red  red           97    32       NA  
##  9 black         light       brown        183    84       24  
## 10 auburn, white fair        blue-gray    182    77       57  
## # … with 77 more rows
…
8.5.3 Exercise

Read the documentation file for the dataset billboard from tidyr. Then use pivot_longer() to convert this tibble into a "panel data layout," as we did with the gradebook example from above.

Show Solution

billboard

## # A tibble: 317 × 79
##    artist     track date.entered   wk1   wk2   wk3   wk4   wk5   wk6   wk7   wk8
##    <chr>      <chr> <date>       <dbl> <dbl> <dbl> <dbl> <dbl> <dbl> <dbl> <dbl>
##  1 2 Pac      Baby… 2000-02-26      87    82    72    77    87    94    99    NA
##  2 2Ge+her    The … 2000-09-02      91    87    92    NA    NA    NA    NA    NA
##  3 3 Doors D… Kryp… 2000-04-08      81    70    68    67    66    57    54    53
##  4 3 Doors D… Loser 2000-10-21      76    76    72    69    67    65    55    59
##  5 504 Boyz   Wobb… 2000-04-15      57    34    25    17    17    31    36    49
##  6 98^0       Give… 2000-08-19      51    39    34    26    26    19     2     2
##  7 A*Teens    Danc… 2000-07-08      97    97    96    95   100    NA    NA    NA
##  8 Aaliyah    I Do… 2000-01-29      84    62    51    41    38    35    35    38
##  9 Aaliyah    Try … 2000-03-18      59    53    38    28    21    18    16    14
## 10 Adams, Yo… Open… 2000-08-26      76    76    74    69    68    67    61    58
## # … with 307 more rows, and 68 more variables: wk9 <dbl>, wk10 <dbl>,
## #   wk11 <dbl>, wk12 <dbl>, wk13 <dbl>, wk14 <dbl>, wk15 <dbl>, wk16 <dbl>,
## #   wk17 <dbl>, wk18 <dbl>, wk19 <dbl>, wk20 <dbl>, wk21 <dbl>, wk22 <dbl>,
## #   wk23 <dbl>, wk24 <dbl>, wk25 <dbl>, wk26 <dbl>, wk27 <dbl>, wk28 <dbl>,
## #   wk29 <dbl>, wk30 <dbl>, wk31 <dbl>, wk32 <dbl>, wk33 <dbl>, wk34 <dbl>,
## #   wk35 <dbl>, wk36 <dbl>, wk37 <dbl>, wk38 <dbl>, wk39 <dbl>, wk40 <dbl>,
## #   wk41 <dbl>, wk42 <dbl>, wk43 <dbl>, wk44 <dbl>, wk45 <dbl>, wk46 <dbl>, …

billboard %>% pivot_longer(cols = starts_with('wk'),
                           names_to = 'week', 
                           values_to = 'rank')

## # A tibble: 24,092 × 5
##    artist track                   date.entered week   rank
##    <chr>  <chr>                   <date>       <chr> <dbl>
##  1 2 Pac  Baby Don't Cry (Keep... 2000-02-26   wk1      87
##  2 2 Pac  Baby Don't Cry (Keep... 2000-02-26   wk2      82
##  3 2 Pac  Baby Don't Cry (Keep... 2000-02-26   wk3      72
##  4 2 Pac  Baby Don't Cry (Keep... 2000-02-26   wk4      77
##  5 2 Pac  Baby Don't Cry (Keep... 2000-02-26   wk5      87
##  6 2 Pac  Baby Don't Cry (Keep... 2000-02-26   wk6      94
##  7 2 Pac  Baby Don't Cry (Keep... 2000-02-26   wk7      99
##  8 2 Pac  Baby Don't Cry (Keep... 2000-02-26   wk8      NA
##  9 2 Pac  Baby Don't Cry (Keep... 2000-02-26   wk9      NA
## 10 2 Pac  Baby Don't Cry (Keep... 2000-02-26   wk10     NA
## # … with 24,082 more rows
…
