Lesson 1 Getting Started with dplyr | Empirical Research Methods
…
After loading gapminder enter the command ?gapminder in the R console to view the R help file for this dataset. Read the documentation you find there to answer the following questions:

How many rows and columns does gapminder contain?

What information is contained in each row and column?

What is the source of the data?

1.2 What is a tibble?

The dplyr package uses a special operator called the pipe, written %>% to chain together commands called verbs that act on objects called tibbles. This probably sounds complicated, but it's easier that it looks. Over the next few sections we'll slowly unpack the preceding sentence by looking at a number of simple examples. But first things first: what is a tibble? Let's see what happens if we display the gapminder dataset:

gapminder

## # A tibble: 1,704 × 6
##    country     continent  year lifeExp      pop gdpPercap
##    <fct>       <fct>     <int>   <dbl>    <int>     <dbl>
##  1 Afghanistan Asia       1952    28.8  8425333      779.
##  2 Afghanistan Asia       1957    30.3  9240934      821.
##  3 Afghanistan Asia       1962    32.0 10267083      853.
##  4 Afghanistan Asia       1967    34.0 11537966      836.
##  5 Afghanistan Asia       1972    36.1 13079460      740.
##  6 Afghanistan Asia       1977    38.4 14880372      786.
##  7 Afghanistan Asia       1982    39.9 12881816      978.
##  8 Afghanistan Asia       1987    40.8 13867957      852.
##  9 Afghanistan Asia       1992    41.7 16317921      649.
## 10 Afghanistan Asia       1997    41.8 22227415      635.
## # … with 1,694 more rows

If you're used to working with dataframes in R, this may surprise you. Rather than trying to print all nrow(gapminder) rows on the screen, R helpfully shows us a useful summary of the information contained in gapminder. This is because gapminder is not a dataframe; it's a tibble, often abbreviated tbl. For our purposes, all you really need to know about tibbles is that they are souped up versions of R dataframes that are designed to work seamlessly with dplyr. To learn more see the chapter "Tibbles" in R for Data Science.

1.3 Filter Rows with filter

We're ready to learn our first dplyr verb: filter selects rows.
Here's an example:

gapminder %>% 
  filter(year == 2007)

## # A tibble: 142 × 6
##    country     continent  year lifeExp       pop gdpPercap
##    <fct>       <fct>     <int>   <dbl>     <int>     <dbl>
##  1 Afghanistan Asia       2007    43.8  31889923      975.
##  2 Albania     Europe     2007    76.4   3600523     5937.
##  3 Algeria     Africa     2007    72.3  33333216     6223.
##  4 Angola      Africa     2007    42.7  12420476     4797.
##  5 Argentina   Americas   2007    75.3  40301927    12779.
##  6 Australia   Oceania    2007    81.2  20434176    34435.
##  7 Austria     Europe     2007    79.8   8199783    36126.
##  8 Bahrain     Asia       2007    75.6    708573    29796.
##  9 Bangladesh  Asia       2007    64.1 150448339     1391.
## 10 Belgium     Europe     2007    79.4  10392226    33693.
## # … with 132 more rows
Compare the results of running this command to what we got when we typed gapminder into the console above.
Rather than displaying the whole dataset, now R is only showing us the 142 rows for which the column year has a value of 2007.
So how does this work? The pipe operator %>% "pipes" the tibble gapminder into the function filter(). The argument year == 2007 tells filter() that it should find all the rows such that the logical condition year == 2007 is TRUE.

Oh no! Have we accidentally deleted all of the other rows of gapminder?
No: we haven't made any changes to gapminder at all.
If you don't believe me try entering gapminder at the console.
All that this command does is display a subset of gapminder.
If we wanted to store the result of running this command, we'd need to assign it to a variable, for example

gapminder2007 <- gapminder %>% 
  filter(year == 2007)
gapminder2007

## # A tibble: 142 × 6
##    country     continent  year lifeExp       pop gdpPercap
##    <fct>       <fct>     <int>   <dbl>     <int>     <dbl>
##  1 Afghanistan Asia       2007    43.8  31889923      975.
##  2 Albania     Europe     2007    76.4   3600523     5937.
##  3 Algeria     Africa     2007    72.3  33333216     6223.
##  4 Angola      Africa     2007    42.7  12420476     4797.
##  5 Argentina   Americas   2007    75.3  40301927    12779.
##  6 Australia   Oceania    2007    81.2  20434176    34435.
##  7 Austria     Europe     2007    79.8   8199783    36126.
##  8 Bahrain     Asia       2007    75.6    708573    29796.
##  9 Bangladesh  Asia       2007    64.1 150448339     1391.
## 10 Belgium     Europe     2007    79.4  10392226    33693.
## # … with 132 more rows
…
1.3.1 Exercises

What is the difference between x = 3 and x == 3 in R?

Show Solution

The first assigns the value 3 to the variable x; the second tests whether x is equal to 3 and returns either TRUE or FALSE.

Write code that uses filter to choose the subset of gapminder for which year is 2002.

Show Solution

gapminder %>% filter(year == 2002)

## # A tibble: 142 × 6
##    country     continent  year lifeExp       pop gdpPercap
##    <fct>       <fct>     <int>   <dbl>     <int>     <dbl>
##  1 Afghanistan Asia       2002    42.1  25268405      727.
##  2 Albania     Europe     2002    75.7   3508512     4604.
##  3 Algeria     Africa     2002    71.0  31287142     5288.
##  4 Angola      Africa     2002    41.0  10866106     2773.
##  5 Argentina   Americas   2002    74.3  38331121     8798.
##  6 Australia   Oceania    2002    80.4  19546792    30688.
##  7 Austria     Europe     2002    79.0   8148312    32418.
##  8 Bahrain     Asia       2002    74.8    656397    23404.
##  9 Bangladesh  Asia       2002    62.0 135656790     1136.
## 10 Belgium     Europe     2002    78.3  10311970    30486.
## # … with 132 more rows
…
## # A tibble: 0 × 6
## # … with 6 variables: country <fct>, continent <fct>, year <int>,
## #   lifeExp <dbl>, pop <int>, gdpPercap <dbl>

Write code that stores the data for Asian countries in a tibble called gapminder_asia. Then display this tibble.

Show Solution

gapminder_asia <- gapminder %>% 
  filter(continent == 'Asia')
gapminder_asia

## # A tibble: 396 × 6
##    country     continent  year lifeExp      pop gdpPercap
##    <fct>       <fct>     <int>   <dbl>    <int>     <dbl>
##  1 Afghanistan Asia       1952    28.8  8425333      779.
##  2 Afghanistan Asia       1957    30.3  9240934      821.
##  3 Afghanistan Asia       1962    32.0 10267083      853.
##  4 Afghanistan Asia       1967    34.0 11537966      836.
##  5 Afghanistan Asia       1972    36.1 13079460      740.
##  6 Afghanistan Asia       1977    38.4 14880372      786.
##  7 Afghanistan Asia       1982    39.9 12881816      978.
##  8 Afghanistan Asia       1987    40.8 13867957      852.
##  9 Afghanistan Asia       1992    41.7 16317921      649.
## 10 Afghanistan Asia       1997    41.8 22227415      635.
## # … with 386 more rows
…
## # A tibble: 2 × 6
##   country continent  year lifeExp       pop gdpPercap
##   <fct>   <fct>     <int>   <dbl>     <int>     <dbl>
## 1 Brazil  Americas   1977    61.5 114313951     6660.
## 2 Ireland Europe     1977    72.0   3271900    11151.

1.4 Sort data with arrange

Suppose we wanted to sort gapminder by gdpPercap.
To do this we can use the arrange command along with the pipe %>% as follows:

gapminder %>% 
  arrange(gdpPercap)

## # A tibble: 1,704 × 6
##    country          continent  year lifeExp      pop gdpPercap
##    <fct>            <fct>     <int>   <dbl>    <int>     <dbl>
##  1 Congo, Dem. Rep. Africa     2002    45.0 55379852      241.
##  2 Congo, Dem. Rep. Africa     2007    46.5 64606759      278.
##  3 Lesotho          Africa     1952    42.1   748747      299.
##  4 Guinea-Bissau    Africa     1952    32.5   580653      300.
##  5 Congo, Dem. Rep. Africa     1997    42.6 47798986      312.
##  6 Eritrea          Africa     1952    35.9  1438760      329.
##  7 Myanmar          Asia       1952    36.3 20092996      331 
##  8 Lesotho          Africa     1957    45.0   813338      336.
##  9 Burundi          Africa     1952    39.0  2445618      339.
## 10 Eritrea          Africa     1957    38.0  1542611      344.
## # … with 1,694 more rows

The logic is very similar to what we saw above for filter. We pipe the tibble gapminder into the function arrange(). The argument gdpPercap tells arrange() that we want to sort by GDP per capita. Note that by default arrange() sorts in ascending order. If we want to sort in descending order, we use the function desc() as follows:

gapminder %>% arrange(desc(gdpPercap))

## # A tibble: 1,704 × 6
##    country   continent  year lifeExp     pop gdpPercap
##    <fct>     <fct>     <int>   <dbl>   <int>     <dbl>
##  1 Kuwait    Asia       1957    58.0  212846   113523.
##  2 Kuwait    Asia       1972    67.7  841934   109348.
##  3 Kuwait    Asia       1952    55.6  160000   108382.
##  4 Kuwait    Asia       1962    60.5  358266    95458.
##  5 Kuwait    Asia       1967    64.6  575003    80895.
##  6 Kuwait    Asia       1977    69.3 1140357    59265.
##  7 Norway    Europe     2007    80.2 4627926    49357.
##  8 Kuwait    Asia       2007    77.6 2505559    47307.
##  9 Singapore Asia       2007    80.0 4553009    47143.
## 10 Norway    Europe     2002    79.0 4535591    44684.
## # … with 1,694 more rows

1.4.1 Exercises

What is the lowest life expectancy in the gapminder dataset? Which country and year does it correspond to?

Show Solution

gapminder %>% 
  arrange(lifeExp)

## # A tibble: 1,704 × 6
##    country      continent  year lifeExp     pop gdpPercap
##    <fct>        <fct>     <int>   <dbl>   <int>     <dbl>
##  1 Rwanda       Africa     1992    23.6 7290203      737.
##  2 Afghanistan  Asia       1952    28.8 8425333      779.
##  3 Gambia       Africa     1952    30    284320      485.
##  4 Angola       Africa     1952    30.0 4232095     3521.
##  5 Sierra Leone Africa     1952    30.3 2143249      880.
##  6 Afghanistan  Asia       1957    30.3 9240934      821.
##  7 Cambodia     Asia       1977    31.2 6978607      525.
##  8 Mozambique   Africa     1952    31.3 6446316      469.
##  9 Sierra Leone Africa     1957    31.6 2295678     1004.
## 10 Burkina Faso Africa     1952    32.0 4469979      543.
## # … with 1,694 more rows

What is the highest life expectancy in the gapminder dataset? Which country and year does it correspond to?

Show Solution

gapminder %>% 
  arrange(desc(lifeExp))

## # A tibble: 1,704 × 6
##    country          continent  year lifeExp       pop gdpPercap
##    <fct>            <fct>     <int>   <dbl>     <int>     <dbl>
##  1 Japan            Asia       2007    82.6 127467972    31656.
##  2 Hong Kong, China Asia       2007    82.2   6980412    39725.
##  3 Japan            Asia       2002    82   127065841    28605.
##  4 Iceland          Europe     2007    81.8    301931    36181.
##  5 Switzerland      Europe     2007    81.7   7554661    37506.
##  6 Hong Kong, China Asia       2002    81.5   6762476    30209.
##  7 Australia        Oceania    2007    81.2  20434176    34435.
##  8 Spain            Europe     2007    80.9  40448191    28821.
##  9 Sweden           Europe     2007    80.9   9031088    33860.
## 10 Israel           Asia       2007    80.7   6426679    25523.
## # … with 1,694 more rows

1.5 Choose columns with select

We use the select verb to choose a subset of columns.
For example, to display only pop, country, and year, we would write

gapminder %>% 
  select(pop, country, year)

## # A tibble: 1,704 × 3
##         pop country      year
##       <int> <fct>       <int>
##  1  8425333 Afghanistan  1952
##  2  9240934 Afghanistan  1957
##  3 10267083 Afghanistan  1962
##  4 11537966 Afghanistan  1967
##  5 13079460 Afghanistan  1972
##  6 14880372 Afghanistan  1977
##  7 12881816 Afghanistan  1982
##  8 13867957 Afghanistan  1987
##  9 16317921 Afghanistan  1992
## 10 22227415 Afghanistan  1997
## # … with 1,694 more rows

Now suppose that we wanted to select every column except pop.
Here's one way to do it:

gapminder %>% 
  select(country, continent, year, lifeExp, gdpPercap)

## # A tibble: 1,704 × 5
##    country     continent  year lifeExp gdpPercap
##    <fct>       <fct>     <int>   <dbl>     <dbl>
##  1 Afghanistan Asia       1952    28.8      779.
##  2 Afghanistan Asia       1957    30.3      821.
##  3 Afghanistan Asia       1962    32.0      853.
##  4 Afghanistan Asia       1967    34.0      836.
##  5 Afghanistan Asia       1972    36.1      740.
##  6 Afghanistan Asia       1977    38.4      786.
##  7 Afghanistan Asia       1982    39.9      978.
##  8 Afghanistan Asia       1987    40.8      852.
##  9 Afghanistan Asia       1992    41.7      649.
## 10 Afghanistan Asia       1997    41.8      635.
## # … with 1,694 more rows

but that takes a lot of typing! If there were more than a handful of columns in our tibble it would be very difficult to deselect a column in this way.
Fortunately there's a shortcut: use the minus sign

gapminder %>% select(-pop)

## # A tibble: 1,704 × 5
##    country     continent  year lifeExp gdpPercap
##    <fct>       <fct>     <int>   <dbl>     <dbl>
##  1 Afghanistan Asia       1952    28.8      779.
##  2 Afghanistan Asia       1957    30.3      821.
##  3 Afghanistan Asia       1962    32.0      853.
##  4 Afghanistan Asia       1967    34.0      836.
##  5 Afghanistan Asia       1972    36.1      740.
##  6 Afghanistan Asia       1977    38.4      786.
##  7 Afghanistan Asia       1982    39.9      978.
##  8 Afghanistan Asia       1987    40.8      852.
##  9 Afghanistan Asia       1992    41.7      649.
## 10 Afghanistan Asia       1997    41.8      635.
## # … with 1,694 more rows

Just as we could when selecting, we can deselect multiple columns by separating their names with a comma:

gapminder %>% select(-pop, -year)

## # A tibble: 1,704 × 4
##    country     continent lifeExp gdpPercap
##    <fct>       <fct>       <dbl>     <dbl>
##  1 Afghanistan Asia         28.8      779.
##  2 Afghanistan Asia         30.3      821.
##  3 Afghanistan Asia         32.0      853.
##  4 Afghanistan Asia         34.0      836.
##  5 Afghanistan Asia         36.1      740.
##  6 Afghanistan Asia         38.4      786.
##  7 Afghanistan Asia         39.9      978.
##  8 Afghanistan Asia         40.8      852.
##  9 Afghanistan Asia         41.7      649.
## 10 Afghanistan Asia         41.8      635.
## # … with 1,694 more rows

It's easy to mix up the dplyr verbs select and filter.
Here's a handy mnemonic: filteR filters Rows while seleCt selects Columns.
Suppose we wanted to select only the column pop from gapminder.

1.5.1 Exercise

Select only the columns year, lifeExp, and country in gapminder.

Show Solution

gapminder %>% 
  select(year, lifeExp, country)

## # A tibble: 1,704 × 3
##     year lifeExp country    
##    <int>   <dbl> <fct>      
##  1  1952    28.8 Afghanistan
##  2  1957    30.3 Afghanistan
##  3  1962    32.0 Afghanistan
##  4  1967    34.0 Afghanistan
##  5  1972    36.1 Afghanistan
##  6  1977    38.4 Afghanistan
##  7  1982    39.9 Afghanistan
##  8  1987    40.8 Afghanistan
##  9  1992    41.7 Afghanistan
## 10  1997    41.8 Afghanistan
## # … with 1,694 more rows

Select all the columns except year, lifeExp, and country in gapminder.

Show Solution

gapminder %>% 
  select(-year, -lifeExp, -country)

## # A tibble: 1,704 × 3
##    continent      pop gdpPercap
##    <fct>        <int>     <dbl>
##  1 Asia       8425333      779.
##  2 Asia       9240934      821.
##  3 Asia      10267083      853.
##  4 Asia      11537966      836.
##  5 Asia      13079460      740.
##  6 Asia      14880372      786.
##  7 Asia      12881816      978.
##  8 Asia      13867957      852.
##  9 Asia      16317921      649.
## 10 Asia      22227415      635.
## # … with 1,694 more rows
…
We can also use group_by to subset over multiple variables at once.
For example, to calculate mean life expectancy and total population in each continent separately for every year, we can use the following code:

gapminder %>% 
  group_by(year, continent) %>%
  summarize(meanPop = mean(pop) / 1000000, meanLifeExp = mean(lifeExp))

## `summarise()` has grouped output by 'year'. You can override using the
## `.groups` argument.

## # A tibble: 60 × 4
## # Groups:   year [12]
##     year continent meanPop meanLifeExp
##    <int> <fct>       <dbl>       <dbl>
##  1  1952 Africa       4.57        39.1
##  2  1952 Americas    13.8         53.3
##  3  1952 Asia        42.3         46.3
##  4  1952 Europe      13.9         64.4
##  5  1952 Oceania      5.34        69.3
##  6  1957 Africa       5.09        41.3
##  7  1957 Americas    15.5         56.0
##  8  1957 Asia        47.4         49.3
##  9  1957 Europe      14.6         66.7
## 10  1957 Oceania      5.97        70.3
## # … with 50 more rows
…
Show Solution

Show Solution

gapminder %>% 
  filter(year > 1977) %>%
  group_by(continent, year) %>%
  summarize(meanGDPc = mean(gdpPercap), sdGDPc = sd(gdpPercap)) %>%
  arrange(sdGDPc)

## `summarise()` has grouped output by 'continent'. You can override using the
## `.groups` argument.

## # A tibble: 30 × 4
## # Groups:   continent [5]
##    continent  year meanGDPc sdGDPc
##    <fct>     <int>    <dbl>  <dbl>
##  1 Oceania    1982   18555.  1304.
##  2 Oceania    1987   20448.  2038.
##  3 Africa     1987    2283.  2567.
##  4 Africa     1992    2282.  2644.
##  5 Africa     1997    2379.  2821.
##  6 Africa     2002    2599.  2973.
##  7 Africa     1982    2482.  3243.
##  8 Oceania    1992   20894.  3579.
##  9 Africa     2007    3089.  3618.
## 10 Oceania    1997   24024.  4206.
## # … with 20 more rows
…
Show Solution

z <- c(4, 1, 5, NA, 3)
z %>% var(na.rm = TRUE)

## [1] 2.916667

Write code to arrange gapminder by lifeExp, first in increasing order and then in decreasing order, without using the pipe.

Show Solution

arrange(gapminder,lifeExp)

## # A tibble: 1,704 × 6
##    country      continent  year lifeExp     pop gdpPercap
##    <fct>        <fct>     <int>   <dbl>   <int>     <dbl>
##  1 Rwanda       Africa     1992    23.6 7290203      737.
##  2 Afghanistan  Asia       1952    28.8 8425333      779.
##  3 Gambia       Africa     1952    30    284320      485.
##  4 Angola       Africa     1952    30.0 4232095     3521.
##  5 Sierra Leone Africa     1952    30.3 2143249      880.
##  6 Afghanistan  Asia       1957    30.3 9240934      821.
##  7 Cambodia     Asia       1977    31.2 6978607      525.
##  8 Mozambique   Africa     1952    31.3 6446316      469.
##  9 Sierra Leone Africa     1957    31.6 2295678     1004.
## 10 Burkina Faso Africa     1952    32.0 4469979      543.
## # … with 1,694 more rows

arrange(gapminder, desc(lifeExp))

## # A tibble: 1,704 × 6
##    country          continent  year lifeExp       pop gdpPercap
##    <fct>            <fct>     <int>   <dbl>     <int>     <dbl>
##  1 Japan            Asia       2007    82.6 127467972    31656.
##  2 Hong Kong, China Asia       2007    82.2   6980412    39725.
##  3 Japan            Asia       2002    82   127065841    28605.
##  4 Iceland          Europe     2007    81.8    301931    36181.
##  5 Switzerland      Europe     2007    81.7   7554661    37506.
##  6 Hong Kong, China Asia       2002    81.5   6762476    30209.
##  7 Australia        Oceania    2007    81.2  20434176    34435.
##  8 Spain            Europe     2007    80.9  40448191    28821.
##  9 Sweden           Europe     2007    80.9   9031088    33860.
## 10 Israel           Asia       2007    80.7   6426679    25523.
## # … with 1,694 more rows
…
