Lesson 4 Predictive Regression Part I | Empirical Research Methods
…
            Empirical Research Methods

Lesson 4 Predictive Regression Part I

4.1 Introduction

This is the first of two lessons that will teach you how to implement and interpret predictive linear regression in R. For the moment we won't worry about causality and we won't talk about heteroskedasticity or autocorrelation. In this first lesson, we'll introduce the basics using a simple dataset that you can download from my website and display as follows:

library(readr)
kids <- read_csv("http://ditraglia.com/econ103/child_test_data.csv")
kids

## # A tibble: 434 × 4
##    kid.score mom.hs mom.iq mom.age
##        <dbl>  <dbl>  <dbl>   <dbl>
##  1        65      1  121.       27
##  2        98      1   89.4      25
##  3        85      1  115.       27
##  4        83      1   99.4      25
##  5       115      1   92.7      27
##  6        98      0  108.       18
##  7        69      1  139.       20
##  8       106      1  125.       23
##  9       102      1   81.6      24
## 10        95      1   95.1      19
## # … with 424 more rows
…
Use glance() to create a tibble that summarizes various measures of model fit:

glance(reg1)

## # A tibble: 1 × 12
##   r.squared adj.r.squared sigma statistic  p.value    df logLik   AIC   BIC
##       <dbl>         <dbl> <dbl>     <dbl>    <dbl> <dbl>  <dbl> <dbl> <dbl>
## 1     0.201         0.199  18.3      109. 7.66e-23     1 -1876. 3757. 3769.
## # … with 3 more variables: deviance <dbl>, df.residual <int>, nobs <int>

Finally, use augment() to create a tibble that merges the tibble you used to run your regression with the corresponding regression fitted values, residuals, etc.

augment(reg1, kids)

## # A tibble: 434 × 10
##    kid_score mom_hs mom_iq mom_age .fitted .resid    .hat .sigma   .cooksd
##        <dbl>  <dbl>  <dbl>   <dbl>   <dbl>  <dbl>   <dbl>  <dbl>     <dbl>
##  1        65      1  121.       27    99.7 -34.7  0.00688   18.2 0.0126   
##  2        98      1   89.4      25    80.3  17.7  0.00347   18.3 0.00164  
##  3        85      1  115.       27    96.2 -11.2  0.00475   18.3 0.000905 
##  4        83      1   99.4      25    86.5  -3.46 0.00231   18.3 0.0000416
##  5       115      1   92.7      27    82.4  32.6  0.00284   18.2 0.00456  
##  6        98      0  108.       18    91.6   6.38 0.00295   18.3 0.000181 
##  7        69      1  139.       20   111.  -41.5  0.0178    18.2 0.0478   
##  8       106      1  125.       23   102.    3.86 0.00879   18.3 0.000200 
##  9       102      1   81.6      24    75.6  26.4  0.00577   18.2 0.00611  
## 10        95      1   95.1      19    83.8  11.2  0.00255   18.3 0.000483 
## # … with 424 more rows, and 1 more variable: .std.resid <dbl>
…
